{
    "general.error": "a 3rR0r 0Ccurr3D. PL3a23 r3p0R7 7h12 0n mY 5UpP0r7 9U1lD: \n```{{error}}```",
    "general.notInDMs": "th@ KOmM4nd 15 not 4V41L48L3 1n dM5.",
    "translation.nativeName": "leetspeak",
    "translation.englishName": "US English",
    "args.required": "`{{arg}}` 1S A r3kW1r3d aRGuM3n7.",
    "perm.required": "U N33D t3H `{{permission}}` P3RM15510n t0 U23 TH@ c0mm4nd.",
    "perm.roleRequired": "u N33d 73h `{{role}}` r0l3 70 u23 7h@ k0Mm4Nd.",
    "perm.botDeveloper": "U mU57 Be 7HE b07 dEVEL0peR 70 u5E 7h@ c0MM4nd.",
    "perm.needed": "Pl3423 3n5Ur3 TH4T i T3H `{{permission}}` p3RmI55i0N.",
    "words.cancelled": "K4nc3lL3D.",
    "words.error": "3rR0r",
    "words.greeting": "greE7Ing",
    "words.farewell": "ph4r3w3ll",
    "words.searching": "534rcH1N'",
    "words.id": "1D",
    "words.nickname": "N1cKn4M3",
    "words.username": "U5ErN4mE",
    "words.status": "s7a7u2",
    "words.playing": "pL4y1n'",
    "words.joined": "j0iN3d",
    "words.roles": "R0L32",
    "words.created": "cr3a73d",
    "words.owner": "0wn3R",
    "words.region": "rE91On",
    "words.members": "m3mb3RZ",
    "words.channels": "ch4NN3L2",
    "words.position": "po51t1On",
    "words.color": "koLoR",
    "words.hoisted": "H0I573D",
    "words.mentionable": "M3n7I0n4bL3",
    "words.guilds": "9u1lD2",
    "words.users": "U53R2",
    "words.uptime": "Up71M3",
    "words.shard": "5H4rd",
    "words.country": "K0UN7rY",
    "words.yes": "Y32",
    "words.no": "n0",
    "words.enabled": "En48LeD",
    "words.disabled": "d154BLEd",
    "words.ban": "84n",
    "words.kick": "KiCk",
    "words.softban": "S0f784n",
    "words.mute": "mU73",
    "words.unmute": "uNMUT3",
    "words.warn": "w4RN",
    "osu.level": "lEvEL",
    "osu.rank": "r4NK",
    "osu.accuracy": "4Ccur4cY",
    "osu.playCount": "PL4y k0uN7",
    "osu.ranked": "r4NK3D 5c0r3",
    "osu.total": "T0T4l sc0rE",
    "guild.verificationLevel": "V3R1F1Ca710N L3V3L",
    "stats.voiceConnections": "v01C3 K0Nn3C710nz",
    "dialog.cancelled": "**4C7i0n c4NceLLed.**",
    "ping.started": "piN'...",
    "ping.done": "p1n'! `{{ping}}ms`",
    "response.success": "👌 5UcC355FULly {{msg}}",
    "response.error": "😧 {{msg}}",
    "response.commandError": "4N 3rr0R 0ccUr3d wH1l3 3X3Cu71n' 7h@ K0Mm4nd.",
    "music.noPermission": "1 Do'N7 h4v3 p3Rm1551oN 7O kOnN3C7 7O 7H3 vO1C3 Ch4nN3l.",
    "music.connecting": "4773Mp71N' 70 K0nN3c7 70 7H3 v01C3 CH4nn3L...",
    "music.connected": "k0Nn3Ct3D t0 T3h V0ic3 Ch4Nn3L.",
    "music.connectionFailed": "phA1led 7o cONneC7 7o 7Eh Vo1ce cHANneL. \n```{{error}}```",
    "music.notConnected": "J00 mUs7 83 K0nN3c73D 70 A v01c3 chAnN3L 70 uz3 7Ha7 K0MMaNd.",
    "music.queued": "4DD3d **{{song}}** 7O 73h kw3U3. 1n pO5171ON **#{{position}}**",
    "music.queuedPlaylist": "4dd3d **{{total}}** S0n92 70 73H KW3u3.",
    "music.voted": "v073d 70 5KIP 50N9. {{cur}}/{{total}} V0735 R3KWiR3d.",
    "music.alreadyVoted": "J00 H4V3 4Lr34DY v073d 70 5kip 7Hi2 50N9.",
    "music.skipping": "sKiPpIN' s0n9...",
    "music.notPlaying": "7HeRE 12'N7 4ny7h1N' PL4Y1N'.",
    "music.nowPlaying": "n0W pL4YIn9: **{{song}}**, R3KW3573d 8y **{{user}}**",
    "music.queueHeader": "mu51c qu3u3 PH0R {{server}}",
    "music.queueFooter": "p49E {{current}}/{{total}}",
    "music.emptyQueue": "73H kW3U3 12 3MP7Y.",
    "music.invalidPage": "iNV4lID P49E nUm8er.",
    "music.failed": "Ph41L3d 70 pl4y 73H 50ng. pL332 r3P0r7 73h PH0ll0w1N' 3rR0r 0N My 5uPP0r7 gU1ld: \n```{{error}}```",
    "music.shuffled": "T3h Kw3u3 h45 833N 5huFFl3d.",
    "music.paused": "P4UsEd 7EH Mus1c.",
    "music.resumed": "r3Sum3d t3h Mus1C.",
    "music.noResults": "n0 r35uL72 PH0UnD.",
    "mod.notMuted": "**{{user}}** 15 no7 MU73d.",
    "mod.enterDuration": "en7eR 4 dUR4710N pH0r 7HE 4C710N. En7er `none` Ph0R N0 Exp1r4710N.",
    "mod.enterReason": "EN7ER 4 Re450N pH0r 7eh 4C710N. En7er `none` Ph0R 4 Un5pEC1F1Ed RE450N.",
    "mod.self": "U K4Nn07 **{{action}}** Y0UrS3lF.",
    "mod.above": "j00 k4nn07 **{{action}}** U53RZ w17 4 R0l3 4B0V3 J00.",
    "ban.failed": "Ph41lED 70 84n U5eR. PLEe2 En5URE 7h@ 1 h4Ve 7EH `Ban Members` PeRM15510n.",
    "kick.failed": "Ph41l3D TO k1ck u53r. pL332 3n5UR3 TH@ 1 H4V3 TH3 `Kick Members` P3Rm1551on.",
    "softban.failed": "f41L3D 70 50F7b4N U53r. pL332 3N5UR3 7H@ 1 H4V3 73h `Ban Members` P3rm15510n.",
    "warn.failed": "f41l3D 70 w4Rn u53R.",
    "purge.failed": "ph41l3d 7o puR93. Pl332 3N5Ur3 7h47 1 h4V3 7H3 `Manage Messages` p3RM1551on.",
    "mute.failed": "ph41l3D 70 mu73 u53r. pL332 3n5ur3 7H@ 1 h4V3 73H `Manage Roles` p3RM15510N.",
    "unmute.failed": "ph41LeD 7o unmu7E u5er. pLEe2 en5uRE 7H47 1 H4VE 7He `Manage Roles` pErm1551On.",
    "announcement.failed": "fA1l3d 70 537 {{type}} M355ag3.",
    "announcement.set": "5ucC355FuLly **537** 7H3 {{type}} M3554G3 70:",
    "announcement.moved": "m0ved TeH {{type}} T0 {{channel}}",
    "announcement.deleted": "Cl34r3d 7H3 {{type}} M355493.",
    "announcement.change": "WH@ w0uLD Y0u l1k3 t3h **{{type}}** t0 83?\nu23 `{mention}` pH0R t3H Us3RS `@M3Nt10n`\nU23 `{user}` ph0r t3H US3RS `Us3rn4m3`\nU23 `{server}` pH0R t3h S3rv3r's N4M3",
    "announcement.move": "wouLd JOO L1k3 th12 **{{type}}** To 83 53Nt 1n 4 `M355493` (Th12 cH4nN3l) OR 1N 4 `DM` (d1r3CT m355493)?",
    "announcement.alreadySet": "A **{{type}}** I5 4lRe4dy 5et iN Thi5 5ERVeR.\nW0ULd j00 lIke t0:",
    "autorole.created": "cR3473D 4U70R0L3 **{{role}** w17 k0nd1710N **{{condition}}**",
    "autorole.failed": "PhA1L3d 70 Cr3a73 aU70R0L3.",
    "autorole.unobtainable": "**{{role}}** 12 N07 08741N48lE.",
    "autorole.duplicate": "DuPl1C4T3 r0l3 4ND k0ND1T10n.",
    "autorole.awardFailed": "Ph41LEd 70 4W4Rd **{{role}}** R0lE.",
    "autorole.granted": "**9R4N73D** TeH **{{role}}** r0L3.",
    "autorole.deleted": "**D3L373d** TeH Au70r0l3.",
    "autorole.deleteFailed": "7h3r3 r No 4u7oRol35 on 7H15 53Rv3R.",
    "autorole.noRoles": "7H3R3 R n0 4u70r0L32 0n 7H12 53rv3r.",
    "autorole.listLine": "- **{{role}}** w17 K0nd1710N **{{condition}}**",
    "autorole.higher": "YOu k4nnO7 m4N493 rol35 H19h3R 7h4n yoU.",
    "hex.invalid": "inVALid h3x sTrIN'.",
    "roblox.notResolved": "f4iL3D 7O r35olv3 U53RId 7o U53rn4M3. 7H3 u53r 4CCouN7 YOu W3R3 534rCHIn' For m4y H4v3 833N 73rMIN473d.",
    "roblox.terminated": "teH 4cC0unT 4220c14TEd w1T tH@ U5eRn4Me h42 8een terM1N4tEd 0R theY h4vE Ch4N9ed tHe1r u5ErN4me.",
    "invite": "u23 0n3 0F tH323 L1Nk2 t0 1nv1T3 m3h t0 Ur s3rv3R, **{{user}}** \nM0deR4710n: <https://frostwalker.pw/invite> \nN0 P3rm2 (N07 R3C0mm3nd3D): <https://frostwalker.pw/invitemin>",
    "google.noResults": "**N0 r35uL72 ph0Und.**",
    "weather.header": "W34TH3r phOr **{{location}}**",
    "weather.current": "KurR3nTly",
    "weather.temp": "T3mp3r4TUr3",
    "weather.wind": "W1nd",
    "weather.humidity": "huM1D17Y",
    "weather.cloudiness": "CL0UdiN33z",
    "weather.sun": "5uNRi53 | 5uN537",
    "xkcd.notfound": "7h47 K0M1C K0uLD n07 83 F0Und.",
    "channel.toggled": "**{{type}}** KOMm4ND2 in TeH KURR3n7 cH4nN3L.",
    "help.usage": "U5493",
    "help.aliases": "4L145E2",
    "help.examples": "3x4mpL32",
    "support.text": "f0r 5Upp0R7, 5U9935710n2, 0r 8u92 pl3453 J01N 73h 5UpP0R7 53rV3R: {{support}}",
    "urban.noresults": "No R35Ul72 cOulD b3 FOUNd FOR 7Ha7 kW3ry.",
    "help.sent": "{{mention}}, 1 H4V3 53n7 j00 dM w17 4 L157 0f My K0mM4Nd5.",
    "help.failed": "{{mention}} ph41l3D 70 53Nd U 4 dM. M4K3 5ur3 7H47 U 4r3 48L3 70 r3C31V3 D1r3c7 m3554932 phr0m m3m83R2 1N 7h12 53Rv3R.",
    "locale.set": "537 73H 9U1ld L0c4L3 70 `{{locale}}`",
    "locale.invalid": "`{{locale}}` 12 n07 4 V4L1D L0c4l3.",
    "locale.header": "KURRen7 l0c4LE2",
    "music.donator": "7h3 9U1ld 0Wn3R MU57 83 4 D0N470r PH0r 7h12 pH347ur3 70 83 3N48l3D. 70 3N48L3 17, pL332 d0n473 @ <https://www.patreon.com/thewsomeguy>",
    "words.library": "lI8r4RY",
    "words.support": "5UPp0R7",
    "music.autoplayCurrent": "4UT0PL4Y iZ KurR3ntLY 53t t0: {{current}}",
    "music.autoplaySet": "ch4n93D 7h3 4U70pl4Y 70 **{{genre}}**",
    "music.volume": "CH4n93d 73h V0LUM3 l3v3L 70 **{{level}}%.**",
    "music.currentVolume": "73h v0LUM3 L3v3l i2 KuRr3N7lY **{{level}}%.**",
    "music.patreon": "If JOo LIk3 73h 53RviC32 7h47 FRO57W4LK3R pROvId32, PL332 kon5ID3R doN47in' 47 <https://www.patreon.com/thewsomeguy>",
    "music.volume.donatorOnly": "73h v0lUM3 k0MMAnD 12 0Nly pH0r d0NA70r2 dU3 70 1ncR3a53D cpU U5A93. pL332 d0na73 @ <https://www.patreon.com/thewsomeguy> 70 3nA8L3 7H12 PH3A7UR3.",
    "music.differentChannel": "J00 Mu57 8e IN 7Eh 54me Ch4NNEl 4Z MEh 70 5kIP!",
    "help.subcommands": "5UbC0MmANDZ",
    "locale.guild.set": "537 73H 9u1lD l0cAL3 70 `{{locale}}`",
    "botinfo.cache": "KACH 5I23",
    "botinfo.hostname": "H057NAme",
    "botinfo.memUsage": "M3M0ry u54g3",
    "locale.user.set": "537 uR lOC4l3 7o `{{locale}}`",
    "botinfo.footer": "cr3a73d By {{creator}} — uP71M3 {{uptime}}",
    "steam.gamesOwned": "94M32 0Wn3d",
    "steam.vacBanned": "vAC 8aNN3d",
    "steam.adduser": "4dd 7h12 U53R",
    "choose.notEnough": "J00 Mu57 1nClUd3 7w0 0R M0r3 173M2 70 Ch0053 PHR0M. (5PL17 cH01c32 by `|`)",
    "choose.chosen": "1 cH00z3 **{{choice}}**",
    "remind.confirm": "0K, j00 w4N7 M3H 70 r3miNd j00 70 `{{text}}` IN `{{duration}}`? [Y/N]",
    "remind.set": "0K, i wiLl r3miNd j00.",
    "remind.masterFail": "fa1L3d t0 K0ntACT MA5t3r. PL332 TRy a9A1n Lat3r."
}
